{
  "swagger": "2.0",
  "info": {
    "title": "User Service",
    "version": "0.5.0",
    "contact": {
      "name": "Brian McQueen",
      "url": "example.com",
      "email": "brian.d.mcqueen@gmail.com"
    },
    "license": {
      "name": "BSD 3-Clause License",
      "url": "https://github.com/grpc-ecosystem/grpc-gateway/blob/master/LICENSE.txt"
    }
  },
  "tags": [
    {
      "name": "UsersService"
    }
  ],
  "schemes": [
    "https"
  ],
  "consumes": [
    "application/json"
  ],
  "produces": [
    "application/json"
  ],
  "paths": {
    "/users": {
      "post": {
        "operationId": "UsersService_CreateUser",
        "responses": {
          "200": {
            "description": "",
            "schema": {
              "$ref": "#/definitions/v1User"
            }
          },
          "default": {
            "description": "An unexpected error response.",
            "schema": {
              "$ref": "#/definitions/rpcStatus"
            }
          }
        },
        "parameters": [
          {
            "name": "body",
            "in": "body",
            "required": true,
            "schema": {
              "$ref": "#/definitions/v1User"
            }
          }
        ],
        "tags": [
          "UsersService"
        ]
      }
    }
  },
  "definitions": {
    "protobufAny": {
      "type": "object",
      "properties": {
        "@type": {
          "type": "string"
        }
      },
      "additionalProperties": {}
    },
    "rpcStatus": {
      "type": "object",
      "properties": {
        "code": {
          "type": "integer",
          "format": "int32"
        },
        "message": {
          "type": "string"
        },
        "details": {
          "type": "array",
          "items": {
            "$ref": "#/definitions/protobufAny"
          }
        }
      }
    },
    "v1CreateUserResponse": {
      "type": "object",
      "properties": {
        "user": {
          "$ref": "#/definitions/v1User"
        }
      }
    },
    "v1User": {
      "type": "object",
      "properties": {
        "id": {
          "type": "integer",
          "format": "int32"
        },
        "organization_id": {
          "type": "integer",
          "format": "int32"
        }
      }
    }
  }
}
